<?xml version="1.0" encoding="UTF-8"?>
<svg width="1600px" height="878px" viewBox="0 0 1600 878" version="1.1" xmlns="http://www.w3.org/2000/svg" xmlns:xlink="http://www.w3.org/1999/xlink">
    <!-- Generator: Sketch 52.5 (67469) - http://www.bohemiancoding.com/sketch -->
    <title>Path</title>
    <desc>Created with Sketch.</desc>
    <defs>
        <radialGradient cx="45.8079885%" cy="89.6588378%" fx="45.8079885%" fy="89.6588378%" r="73.1224948%" gradientTransform="translate(0.458080,0.896588),scale(1.000000,0.551193),rotate(-44.545953),translate(-0.458080,-0.896588)" id="radialGradient-1">
            <stop stop-color="#FFEEC8" offset="0%"></stop>
            <stop stop-color="#FECBC5" offset="100%"></stop>
        </radialGradient>
    </defs>
    <g id="Page-1" stroke="none" stroke-width="1" fill="none" fill-rule="evenodd">
        <g id="Все-проекты" fill="url(#radialGradient-1)">
            <g id="Bitmap-2" transform="translate(-135.000000, -333.000000)">
                <g id="Bitmap">
                    <path d="M1174.77313,-135.632601 C1174.77313,-135.632601 1400.69712,-20.1364946 1316.60022,449.362863 C1232.50333,918.86222 1356.36117,720.653137 1399.85568,1062.76997 C1428.85202,1290.84785 1321.98867,1433.9511 1079.26564,1492.0797 L463.301979,1355.01853 L554.575211,925.611737 L680.401461,343.041937 L799.119036,-215.480343 L983.056198,-176.383292 C1106.941,-150.050764 1170.84665,-136.4672 1174.77313,-135.632601 Z" id="Path" transform="translate(933.899571, 638.299677) rotate(78.000000) translate(-933.899571, -638.299677) "></path>
                </g>
            </g>
        </g>
    </g>
</svg>