<?xml version="1.0" standalone="no"?>
<svg
  viewBox="0 0 600 600"
  xmlns="http://www.w3.org/2000/svg"
  xmlns:xlink="http://www.w3.org/1999/xlink"
  preserveaspectratio="xMidYMid slice"
>
  <mask id="mask">
    <path d="M521.49 407.322c-10.566 40.742-107.843 41.247-151.238 48.041-40.599 7.693-57.905 33.758-105.297 50.244-35.012 15.976-60.652 5.252-83.052-1.026-29.918-8.387-84.825-53.019-103.315-93.523-20.387-42.302-26.702-86.105-20.502-129.605 1.606-45.197 118.197-105.374 140.32-139.246 31.21-40.165 49.687-70.315 88.46-79.388 120.742 4.476 249.435 240.739 234.625 344.503z" fill="white" />
  </mask>

  <image width="100%" height="100%" mask="url(#mask)" xlink:href="https://proekt.academy/wp-content/cache/thumb/14/8ee25682802f514_210x0.jpg"></image>

</svg>
