<svg xmlns="http://www.w3.org/2000/svg" xmlns:xlink="http://www.w3.org/1999/xlink" width="621" height="588"
     viewBox="0 0 621 588">

    <mask id="4nkdc" width="2" height="2" x="-1" y="-1">
        <path fill="#fff" d="M931 128h535v501H931z"/>
        <path id="4nkda"
              d="m 577.83264,451.32638 c -28.2857,36.63054 -109.6826,29.59031 -173.3215,47.94702 -63.483,18.47025 -109.1169,62.1642 -163.8112,66.42438 -54.8506,4.14471 -118.727,-31.00454 -161.636556,-89.51835 -42.94275,-58.65599 -64.76077,-140.56334 -41.9904,-197.50786 22.77154,-56.94384 90.411256,-88.83918 140.839056,-134.85823 50.3947,-46.160326 83.666,-106.614913 126.5292,-115.303503 42.7402,-8.660928 95.0361,34.301761 138.5913,80.511243 43.5545,46.21071 78.3361,95.52586 108.2802,160.37736 29.9432,64.8517 54.7711,145.15447 26.5189,181.92816 z"/>
    </mask>

        <filter id="4nkdb" width="675" height="643" x="861" y="58" filterUnits="userSpaceOnUse">
            <feOffset dy="2" in="SourceGraphic" result="FeOffset1032Out"/>
            <feGaussianBlur in="FeOffset1032Out" result="FeGaussianBlur1033Out" stdDeviation="24 24"/>
        </filter>
        <linearGradient id="4nkdd" x1="1463.44" x2="947.56" y1="111.76" y2="649.03" gradientUnits="userSpaceOnUse">
            <stop offset="0" stop-color="#005bb6"/>
            <stop offset="1" stop-color="#4ca5e0"/>
        </linearGradient>
    <g>
        <g>
            <g filter="url(#4nkdb)">
                <use fill="none" stroke-opacity=".1" stroke-width="0" mask="url(&quot;#4nkdc&quot;)"
                     xlink:href="#4nkda"/>
                <use fill-opacity=".1" xlink:href="#4nkda"/>
            </g>
            <use fill="url(#4nkdd)" xlink:href="#4nkda"/>
        </g>
    </g>
</svg>